<?xml version="1.0" encoding="utf-8"?>
<!-- Generator: Adobe Illustrator 18.0.0, SVG Export Plug-In . SVG Version: 6.00 Build 0)  -->
<!DOCTYPE svg PUBLIC "-//W3C//DTD SVG 1.1//EN" "http://www.w3.org/Graphics/SVG/1.1/DTD/svg11.dtd">
<svg version="1.1" id="Sonnox" xmlns="http://www.w3.org/2000/svg" xmlns:xlink="http://www.w3.org/1999/xlink" x="0px" y="0px"
	 viewBox="-0.5 354.1 595.8 133.1" enable-background="new -0.5 354.1 595.8 133.1" xml:space="preserve">
<title>Sonnox-logo-white-dots</title>
<path fill="#FFFFFF" stroke="#FFFFFF" stroke-miterlimit="10" d="M53.8,376.5c-2.5-2.1-6-3.1-10.3-3.1c-3.6,0-6.3,0.8-8.2,2.3
	c-1.7,1.3-2.8,3.4-2.7,5.6c0.1,1.7,0.9,3.3,2.3,4.3c1.5,1.3,4.9,2.6,10.4,3.7c13.6,2.9,23.3,5.9,29.2,8.9c5.9,3,10.2,6.7,12.8,11.2
	c2.7,4.5,4.1,9.7,4,14.9c0,6.3-1.8,12.6-5.4,17.8c-3.7,5.5-8.9,9.8-15,12.4c-6.4,2.8-14.5,4.2-24.2,4.2c-17.1,0-29-3.3-35.5-9.9
	c-6.6-6.6-10.3-15-11.2-25.1l29.6-1.8c0.6,4.8,1.9,8.5,3.9,11c3.2,4.1,7.8,6.1,13.7,6.1c4.4,0,7.9-1,10.3-3.1
	c2.2-1.7,3.6-4.4,3.6-7.2c-0.1-2.7-1.3-5.3-3.4-7c-2.3-2.1-7.6-4-15.9-5.8c-13.6-3.1-23.3-7.1-29.1-12.2c-5.7-4.8-9-11.9-8.8-19.4
	c0-5.2,1.6-10.3,4.5-14.7c3.3-4.9,8-8.6,13.5-10.8c6-2.7,14.3-4,24.7-4c12.8,0,22.6,2.4,29.4,7.2s10.8,12.4,12,22.8l-29.3,1.7
	C57.9,381.8,56.3,378.5,53.8,376.5L53.8,376.5L53.8,376.5z M174.2,447.9c-7.4,7.2-17.7,10.7-30.8,10.7c-11.7,0-21.2-3-28.4-8.9
	c-8.9-7.4-13.3-17.1-13.3-29c0-11.1,3.8-20.3,11.3-27.5c7.5-7.2,17.6-10.8,30.4-10.8c14.6,0,25.6,4.2,33.1,12.7c6,6.8,9,15.2,9,25.2
	C185.3,431.5,181.6,440.7,174.2,447.9L174.2,447.9L174.2,447.9z M153.4,406.3c-2.3-3-5.9-4.7-9.7-4.6c-3.9-0.1-7.7,1.6-10.1,4.7
	c-2.7,3.1-4,7.9-4,14.3s1.3,11.2,3.9,14.4c4.6,5.5,12.7,6.2,18.2,1.7c0.6-0.5,1.1-1,1.6-1.6c2.6-3,3.9-7.9,3.9-14.7
	C157.3,414.1,156,409.4,153.4,406.3L153.4,406.3L153.4,406.3z M247.8,456.9v-40c0-4.6-0.8-7.8-2.5-9.7c-1.8-2-4.5-3-7.1-2.8
	c-3.2-0.1-6.2,1.3-8.2,3.8c-2.1,2.5-3.2,7.1-3.2,13.8V457h-27.9v-72.9h26V396c3.2-4.2,7.2-7.8,11.8-10.4c4.5-2.2,9.5-3.3,14.6-3.1
	c7.7,0,13.8,2.3,18.1,6.9c4.4,4.6,6.5,11.7,6.6,21.3V457L247.8,456.9L247.8,456.9z M341.5,456.9v-40c0-4.6-0.8-7.8-2.5-9.7
	c-1.8-2-4.5-3-7.1-2.8c-3.2-0.1-6.2,1.3-8.2,3.8c-2.1,2.5-3.2,7.1-3.2,13.8V457h-27.9v-72.9h26V396c3.2-4.2,7.2-7.8,11.8-10.4
	c4.5-2.2,9.5-3.3,14.5-3.1c7.7,0,13.8,2.3,18.2,6.9s6.6,11.7,6.6,21.3V457L341.5,456.9L341.5,456.9z M455.3,447.8
	c-7.4,7.2-17.7,10.7-30.8,10.7c-11.7,0-21.2-3-28.4-8.9c-8.9-7.4-13.3-17-13.3-29c0-11.1,3.8-20.3,11.3-27.5
	c7.5-7.2,17.6-10.8,30.4-10.8c14.7,0,25.7,4.2,33.1,12.7c6,6.8,9,15.2,9,25.2C466.5,431.5,462.8,440.7,455.3,447.8L455.3,447.8
	L455.3,447.8z M434.5,406.3c-2.3-3-5.9-4.7-9.7-4.6c-3.9-0.1-7.7,1.6-10.1,4.7c-2.7,3.1-4,7.9-4,14.3s1.3,11.2,4,14.4
	c4.6,5.5,12.7,6.2,18.2,1.7c0.6-0.5,1.1-1,1.6-1.6c2.6-3,3.9-7.9,3.9-14.7C438.5,414.1,437.2,409.4,434.5,406.3L434.5,406.3
	L434.5,406.3z M559.6,456.9H527l-13.5-23.4L497.7,457h-30.3l26.5-38.1l-25.1-34.7h33.1l11.6,20.3l13.5-20.3h30.8l-24.9,34.7
	L559.6,456.9L559.6,456.9L559.6,456.9z"/>
<polygon fill="#FFFFFF" points="58.7,386.4 88.1,386.4 87.9,384.3 59.5,384.3 "/>
<polygon fill="#FFFFFF" points="29.6,421.8 0,421.8 0,423.7 27.7,423.7 "/>
<circle fill="#FFED00" cx="585.5" cy="364.4" r="9.8"/>
<circle fill="#EFA732" cx="585.5" cy="392.6" r="9.8"/>
<circle fill="#E02B24" cx="585.5" cy="421.1" r="9.8"/>
<circle fill="#313289" cx="585.5" cy="477.4" r="9.8"/>
<circle fill="#008F3B" cx="585.5" cy="449.3" r="9.8"/>
</svg>
